…
``` r
filter(flights, month == 1, day == 1)
```

    ## # A tibble: 842 x 19
    ##     year month   day dep_time sched_dep_time dep_delay arr_time sched_arr_time
    ##    <int> <int> <int>    <int>          <int>     <dbl>    <int>          <int>
    ##  1  2013     1     1      517            515         2      830            819
    ##  2  2013     1     1      533            529         4      850            830
    ##  3  2013     1     1      542            540         2      923            850
    ##  4  2013     1     1      544            545        -1     1004           1022
    ##  5  2013     1     1      554            600        -6      812            837
    ##  6  2013     1     1      554            558        -4      740            728
    ##  7  2013     1     1      555            600        -5      913            854
    ##  8  2013     1     1      557            600        -3      709            723
    ##  9  2013     1     1      557            600        -3      838            846
    ## 10  2013     1     1      558            600        -2      753            745
    ## # … with 832 more rows, and 11 more variables: arr_delay <dbl>, carrier <chr>,
    ## #   flight <int>, tailnum <chr>, origin <chr>, dest <chr>, air_time <dbl>,
    ## #   distance <dbl>, hour <dbl>, minute <dbl>, time_hour <dttm>

``` r
select(flights, year:day)
```

    ## # A tibble: 336,776 x 3
    ##     year month   day
    ##    <int> <int> <int>
    ##  1  2013     1     1
    ##  2  2013     1     1
    ##  3  2013     1     1
    ##  4  2013     1     1
    ##  5  2013     1     1
    ##  6  2013     1     1
    ##  7  2013     1     1
    ##  8  2013     1     1
    ##  9  2013     1     1
    ## 10  2013     1     1
    ## # … with 336,766 more rows

``` r
select(flights, -c(year:day))
```

    ## # A tibble: 336,776 x 16
    ##    dep_time sched_dep_time dep_delay arr_time sched_arr_time arr_delay carrier
    ##       <int>          <int>     <dbl>    <int>          <int>     <dbl> <chr>  
    ##  1      517            515         2      830            819        11 UA     
    ##  2      533            529         4      850            830        20 UA     
    ##  3      542            540         2      923            850        33 AA     
    ##  4      544            545        -1     1004           1022       -18 B6     
    ##  5      554            600        -6      812            837       -25 DL     
    ##  6      554            558        -4      740            728        12 UA     
    ##  7      555            600        -5      913            854        19 B6     
    ##  8      557            600        -3      709            723       -14 EV     
    ##  9      557            600        -3      838            846        -8 B6     
    ## 10      558            600        -2      753            745         8 AA     
    ## # … with 336,766 more rows, and 9 more variables: flight <int>, tailnum <chr>,
    ## #   origin <chr>, dest <chr>, air_time <dbl>, distance <dbl>, hour <dbl>,
    ## #   minute <dbl>, time_hour <dttm>

``` r
rename(flights, tail_num = tailnum)
```

    ## # A tibble: 336,776 x 19
    ##     year month   day dep_time sched_dep_time dep_delay arr_time sched_arr_time
    ##    <int> <int> <int>    <int>          <int>     <dbl>    <int>          <int>
    ##  1  2013     1     1      517            515         2      830            819
    ##  2  2013     1     1      533            529         4      850            830
    ##  3  2013     1     1      542            540         2      923            850
    ##  4  2013     1     1      544            545        -1     1004           1022
    ##  5  2013     1     1      554            600        -6      812            837
    ##  6  2013     1     1      554            558        -4      740            728
    ##  7  2013     1     1      555            600        -5      913            854
    ##  8  2013     1     1      557            600        -3      709            723
    ##  9  2013     1     1      557            600        -3      838            846
    ## 10  2013     1     1      558            600        -2      753            745
    ## # … with 336,766 more rows, and 11 more variables: arr_delay <dbl>,
    ## #   carrier <chr>, flight <int>, tail_num <chr>, origin <chr>, dest <chr>,
    ## #   air_time <dbl>, distance <dbl>, hour <dbl>, minute <dbl>, time_hour <dttm>
``` r
flights_sml <- select(flights, 
  year:day, 
  ends_with("delay"), 
  distance, 
  air_time
)

mutate(flights_sml,
  gain = dep_delay - arr_delay,
  speed = distance / air_time * 60
)
```

    ## # A tibble: 336,776 x 9
    ##     year month   day dep_delay arr_delay distance air_time  gain speed
    ##    <int> <int> <int>     <dbl>     <dbl>    <dbl>    <dbl> <dbl> <dbl>
    ##  1  2013     1     1         2        11     1400      227    -9  370.
    ##  2  2013     1     1         4        20     1416      227   -16  374.
    ##  3  2013     1     1         2        33     1089      160   -31  408.
    ##  4  2013     1     1        -1       -18     1576      183    17  517.
    ##  5  2013     1     1        -6       -25      762      116    19  394.
    ##  6  2013     1     1        -4        12      719      150   -16  288.
    ##  7  2013     1     1        -5        19     1065      158   -24  404.
    ##  8  2013     1     1        -3       -14      229       53    11  259.
    ##  9  2013     1     1        -3        -8      944      140     5  405.
    ## 10  2013     1     1        -2         8      733      138   -10  319.
    ## # … with 336,766 more rows

``` r
transmute(flights,
  gain = dep_delay - arr_delay,
  hours = air_time / 60,
  gain_per_hour = gain / hours
)
```

    ## # A tibble: 336,776 x 3
    ##     gain hours gain_per_hour
    ##    <dbl> <dbl>         <dbl>
    ##  1    -9 3.78          -2.38
    ##  2   -16 3.78          -4.23
    ##  3   -31 2.67         -11.6 
    ##  4    17 3.05           5.57
    ##  5    19 1.93           9.83
    ##  6   -16 2.5           -6.4 
    ##  7   -24 2.63          -9.11
    ##  8    11 0.883         12.5 
    ##  9     5 2.33           2.14
    ## 10   -10 2.3           -4.35
    ## # … with 336,766 more rows

``` r
delays <- flights %>% 
  group_by(dest) %>% 
  summarise(
    count = n(),
    dist = mean(distance, na.rm = TRUE),
    delay = mean(arr_delay, na.rm = TRUE)
  ) %>% 
  filter(count > 20, dest != "HNL")
delays
```

    ## # A tibble: 96 x 4
    ##    dest  count  dist delay
    ##    <chr> <int> <dbl> <dbl>
    ##  1 ABQ     254 1826   4.38
    ##  2 ACK     265  199   4.85
    ##  3 ALB     439  143  14.4 
    ##  4 ATL   17215  757. 11.3 
    ##  5 AUS    2439 1514.  6.02
    ##  6 AVL     275  584.  8.00
    ##  7 BDL     443  116   7.05
    ##  8 BGR     375  378   8.03
    ##  9 BHM     297  866. 16.9 
    ## 10 BNA    6333  758. 11.8 
    ## # … with 86 more rows
